B64:c21hcnRwaG9uZQ== 0 250 247 -253
B64:Y2VsdWxhcg== 0 249 245 -252
B64:Y2Vs 0 250 248 244 -251
B64:Z2FsYXh5 0 250 248 243 -250
B64:emVuZm9uZQ== 0 250 247 242 236 -249
B64:cmVkbWk= 0 250 248 244 238 228 -248
B64:bWk= 0 250 248 244 238 227 -247
B64:bWF4 0 250 248 244 238 227 -246
B64:cGhvbmU= 0 250 247 242 236 224 -245
B64:cGx1cw== 0 250 247 242 235 223 -244
B64:NA== 0 250 247 242 235 223 -243
B64:cHJv 0 250 247 242 235 222 -242
B64:aS1waG9uZQ== 0 249 246 241 234 221 -241
B64:aXBob25l 0 249 246 241 234 221 -240
B64:aQ== 0 249 246 241 234 220 -239
B64:bm90ZQ== 0 249 245 239 229 210 -238
B64:Mw== 0 249 245 239 229 210 -237
B64:OA== 0 250 248 243 237 226 208 -236
B64:MjAxNw== 0 250 248 243 237 226 208 -235
B64:eA== 0 250 248 243 237 226 207 -234
B64:NQ== 0 250 248 243 237 226 207 -233
B64:Ng== 0 250 247 242 235 222 203 -232
B64:MjAxOA== 0 249 246 241 234 220 202 -231
B64:ajc= 0 249 246 241 234 220 202 -230
B64:Nw== 0 249 246 241 233 219 200 -229
B64:cHJpbWU= 0 249 246 241 233 219 200 -228
B64:Mg== 0 249 246 241 233 218 199 -227
B64:MjAxNg== 0 249 246 241 233 218 199 -226
B64:dGhpbnE= 0 249 246 241 233 218 198 -225
B64:bGl0ZQ== 0 250 248 244 238 228 209 183 -224
B64:Z28= 0 250 248 244 238 228 209 182 -223
B64:c2U= 0 250 248 244 238 228 209 182 -222
B64:eHM= 0 250 248 243 237 225 206 181 -221
B64:NnM= 0 250 248 243 237 225 206 181 -220
B64:czc= 0 249 246 241 233 219 201 174 -219
B64:bTE= 0 249 246 241 233 219 201 174 -218
B64:Y2RtYQ== 0 249 246 241 233 219 201 173 -217
B64:ajI= 0 249 246 241 233 219 201 173 -216
B64:c3R5bHVz 0 249 246 241 233 218 198 172 -215
B64:OQ== 0 249 246 241 233 218 198 172 -214
B64:NHM= 0 249 246 240 232 217 197 171 -213
B64:bGl2ZQ== 0 249 246 240 232 217 197 171 -212
B64:YTk= 0 249 246 240 232 217 197 170 -211
B64:c2VsZmll 0 249 246 240 232 217 197 170 -210
B64:ajM= 0 249 246 240 232 217 196 169 -209
B64:NWM= 0 249 246 240 232 217 196 169 -208
B64:bWl4 0 249 246 240 232 217 196 168 -207
B64:NHg= 0 250 248 243 237 225 206 180 142 -206
B64:M2c= 0 250 248 243 237 225 206 180 142 -205
B64:Yzc= 0 250 248 243 237 225 206 180 141 -204
B64:YTI= 0 250 248 243 237 225 206 180 141 -203
B64:c3R5bG8= 0 250 248 243 237 225 205 179 140 -202
B64:M2dz 0 250 248 243 237 225 205 179 140 -201
B64:YTg= 0 250 248 243 237 225 205 179 139 -200
B64:emM1NTRrbA== 0 250 248 243 237 225 205 179 139 -199
B64:ajE= 0 250 248 243 237 225 205 178 138 -198
B64:eHI= 0 250 248 243 237 225 205 178 138 -197
B64:c3Rhcg== 0 250 248 243 237 225 205 178 137 -196
B64:NWE= 0 250 248 243 237 225 205 178 137 -195
B64:bTI= 0 250 247 242 236 224 204 177 136 -194
B64:czg= 0 250 247 242 236 224 204 177 136 -193
B64:NWc= 0 250 247 242 236 224 204 177 135 -192
B64:Y29yZQ== 0 250 247 242 236 224 204 177 135 -191
B64:azg= 0 250 247 242 236 224 204 176 134 -190
B64:Zzc= 0 250 247 242 236 224 204 176 134 -189
B64:NXM= 0 250 247 242 236 224 204 176 133 -188
B64:ajU= 0 250 247 242 236 224 204 176 133 -187
B64:c2hhcms= 0 250 247 242 235 222 203 175 132 -186
B64:YmxhY2s= 0 250 247 242 235 222 203 175 132 -185
B64:azIw 0 250 247 242 235 222 203 175 131 -184
B64:Zzg= 0 249 246 240 232 217 196 168 130 -183
B64:cG93ZXI= 0 249 246 240 232 217 196 168 130 -182
B64:emI1NTNrbA== 0 249 246 240 232 216 195 167 129 -181
B64:YWN0aXZl 0 249 246 240 232 216 195 167 129 -180
B64:ZWRnZQ== 0 249 246 240 232 216 195 167 128 -179
B64:YTc= 0 249 246 240 232 216 195 167 128 -178
B64:ZGVsdXhl 0 249 246 240 232 216 195 166 127 -177
B64:cTg= 0 249 246 240 232 216 195 166 127 -176
B64:ZzU= 0 249 246 240 232 216 195 166 126 -175
B64:eGNvdmVy 0 249 246 240 232 216 195 166 126 -174
B64:YzU= 0 249 246 240 232 216 194 165 125 -173
B64:Y2FtZXJh 0 249 246 240 232 216 194 165 125 -172
B64:azEw 0 249 246 240 232 216 194 165 124 -171
B64:dzMw 0 249 246 240 232 216 194 165 124 -170
B64:czEw 0 249 246 240 232 216 194 164 123 -169
B64:bDE= 0 249 246 240 232 216 194 164 123 -168
B64:dg== 0 249 246 240 232 216 194 164 122 -167
B64:b243 0 249 246 240 232 216 194 164 122 -166
B64:ZXhwbG9yZXI= 0 249 246 240 231 215 193 163 121 -165
B64:emI2MzRrbA== 0 249 246 240 231 215 193 163 121 -164
B64:cQ== 0 249 246 240 231 215 193 163 120 -163
B64:azEx 0 249 246 240 231 215 193 163 120 -162
B64:ajQ= 0 249 246 240 231 215 193 162 119 -161
B64:bWluaQ== 0 249 246 240 231 215 193 162 119 -160
B64:cm9n 0 249 246 240 231 215 193 162 118 -159
B64:YTE= 0 249 246 240 231 215 193 162 118 -158
B64:Z3JhbmQ= 0 249 246 240 231 215 192 161 117 -157
B64:eTE= 0 249 246 240 231 215 192 161 117 -156
B64:enM2MzBrbA== 0 250 247 242 235 222 203 175 131 79 -155
B64:azc= 0 249 246 240 231 215 192 161 116 78 -154
B64:YTgw 0 249 246 240 231 215 192 161 116 78 -153
B64:YTYw 0 249 246 240 231 215 192 161 116 77 -152
B64:emI1NTFrbA== 0 249 246 240 231 215 192 161 116 77 -151
B64:emI0NTJrZw== 0 249 246 240 231 215 192 160 115 76 -150
B64:c2NyZWVu 0 249 246 240 231 215 192 160 115 76 -149
B64:czk= 0 249 246 240 231 215 192 160 115 75 -148
B64:emQ1NTNrbA== 0 249 246 240 231 215 192 160 115 75 -147
B64:em9vbQ== 0 249 246 240 231 215 192 160 114 74 -146
B64:djUw 0 249 246 240 231 215 192 160 114 74 -145
B64:YTZz 0 249 246 240 231 215 192 160 114 73 -144
B64:dHJpYnV0ZQ== 0 249 246 240 231 215 192 160 114 73 -143
B64:emM1NTFrbA== 0 249 246 240 231 214 191 159 113 72 -142
B64:dQ== 0 249 246 240 231 214 191 159 113 72 -141
B64:emQ1NTJrbA== 0 249 246 240 231 214 191 159 113 71 -140
B64:czI= 0 249 246 240 231 214 191 159 113 71 -139
B64:cTY= 0 249 246 240 231 214 191 159 112 70 -138
B64:ZzY= 0 249 246 240 231 214 191 159 112 70 -137
B64:emE1NTFrbA== 0 249 246 240 231 214 191 159 112 69 -136
B64:ZW1waXJl 0 249 246 240 231 214 191 159 112 69 -135
B64:emU1NTNrbA== 0 249 246 240 231 214 191 158 111 68 -134
B64:Y2Ft 0 249 246 240 231 214 191 158 111 68 -133
B64:bHV4dXJ5 0 249 246 240 231 214 191 158 111 67 -132
B64:czkr 0 249 246 240 231 214 191 158 111 67 -131
B64:czEwKw== 0 249 246 240 231 214 191 158 110 66 -130
B64:enM1NzBrbA== 0 249 246 240 231 214 191 158 110 66 -129
B64:b241 0 249 246 240 231 214 191 158 110 65 -128
B64:cTc= 0 249 246 240 231 214 191 158 110 65 -127
B64:cw== 0 249 246 240 231 214 190 157 109 64 -126
B64:YWk= 0 249 246 240 231 214 190 157 109 64 -125
B64:ZjE= 0 249 246 240 231 214 190 157 109 63 -124
B64:azMw 0 249 246 240 231 214 190 157 109 63 -123
B64:ejM= 0 249 246 240 231 214 190 157 108 62 -122
B64:M3M= 0 249 246 240 231 214 190 157 108 62 -121
B64:dDUwMA== 0 249 246 240 231 214 190 157 108 61 -120
B64:YTUw 0 249 246 240 231 214 190 157 108 61 -119
B64:c2tpbg== 0 249 246 240 231 214 190 156 107 60 -118
B64:azUw 0 249 246 240 231 214 190 156 107 60 -117
B64:NmE= 0 249 246 240 231 214 190 156 107 59 -116
B64:emU2MjBrbA== 0 249 246 240 231 214 190 156 107 59 -115
B64:djM1 0 249 246 240 231 214 190 156 106 58 -114
B64:Zzhz 0 249 246 240 231 214 190 156 106 58 -113
B64:Nng= 0 249 246 240 231 214 190 156 106 57 -112
B64:em9uZQ== 0 249 246 240 231 214 190 156 106 57 -111
B64:YTIwZQ== 0 249 245 239 230 213 189 155 105 56 -110
B64:djIw 0 249 245 239 230 213 189 155 105 56 -109
B64:bTIw 0 249 245 239 230 213 189 155 105 55 -108
B64:ZWRpdGlvbg== 0 249 245 239 230 213 189 155 105 55 -107
B64:MnM= 0 249 245 239 230 213 189 155 104 54 -106
B64:ajQr 0 249 245 239 230 213 189 155 104 54 -105
B64:bTMw 0 249 245 239 230 213 189 155 104 53 -104
B64:Y2M5ZQ== 0 249 245 239 230 213 189 155 104 53 -103
B64:YTcw 0 249 245 239 230 213 189 154 103 52 -102
B64:emU1MjBrbA== 0 249 245 239 230 213 189 154 103 52 -101
B64:cTk= 0 249 245 239 230 213 189 154 103 51 -100
B64:emI2MzNrbA== 0 249 245 239 230 213 189 154 103 51 -99
B64:emM1MjBrbA== 0 249 245 239 230 213 189 154 102 50 -98
B64:NXg= 0 249 245 239 230 213 189 154 102 50 -97
B64:bGlnaHQ= 0 249 245 239 230 213 189 154 102 49 -96
B64:ag== 0 249 245 239 230 213 189 154 102 49 -95
B64:ZmU= 0 249 245 239 230 213 188 153 101 48 -94
B64:YTU= 0 249 245 239 230 213 188 153 101 48 -93
B64:bDI= 0 249 245 239 230 213 188 153 101 47 -92
B64:djQw 0 249 245 239 230 213 188 153 101 47 -91
B64:enM2MDBrbA== 0 249 245 239 230 213 188 153 100 46 -90
B64:emM1MjF0bA== 0 249 245 239 230 213 188 153 100 46 -89
B64:djMwcw== 0 249 245 239 230 213 188 153 100 45 -88
B64:ZXhwcmVzcw== 0 249 245 239 230 213 188 153 100 45 -87
B64:emI1MDBrbA== 0 249 245 239 230 213 188 152 99 44 -86
B64:ajYr 0 249 245 239 230 213 188 152 99 44 -85
B64:emU1NTJrbA== 0 249 245 239 230 213 188 152 99 43 -84
B64:ZzUwMHRn 0 249 245 239 230 213 188 152 99 43 -83
B64:YXJpc3Rv 0 249 245 239 230 213 188 152 98 42 -82
B64:azQ= 0 249 245 239 230 213 188 152 98 42 -81
B64:ejQ= 0 249 245 239 230 213 188 152 98 41 -80
B64:bTQw 0 249 245 239 230 213 188 152 98 41 -79
B64:cG9jb3Bob25l 0 249 245 239 230 212 187 151 97 40 -78
B64:YTgr 0 249 245 239 230 212 187 151 97 40 -77
B64:czgr 0 249 245 239 230 212 187 151 97 39 -76
B64:bnh0 0 249 245 239 230 212 187 151 97 39 -75
B64:ZHVv 0 249 245 239 230 212 187 151 96 38 -74
B64:emI1MDFrbA== 0 249 245 239 230 212 187 151 96 38 -73
B64:emE1NTBrbA== 0 249 245 239 230 212 187 151 96 37 -72
B64:aGVsbw== 0 249 245 239 230 212 187 151 96 37 -71
B64:YTM= 0 249 245 239 230 212 187 150 95 36 -70
B64:cGxheQ== 0 249 245 239 230 212 187 150 95 36 -69
B64:azM= 0 249 245 239 230 212 187 150 95 35 -68
B64:cTYw 0 249 245 239 230 212 187 150 95 35 -67
B64:enM1NTFrbA== 0 249 245 239 230 212 187 150 94 34 -66
B64:emM1NTNrbA== 0 249 245 239 230 212 187 150 94 34 -65
B64:YTMw 0 249 245 239 230 212 187 150 94 33 -64
B64:emM1MjB0bA== 0 249 245 239 230 212 187 150 94 33 -63
B64:ZHVhbA== 0 249 245 239 230 212 186 149 93 32 -62
B64:emI1NzB0bA== 0 249 245 239 230 212 186 149 93 32 -61
B64:Yzk= 0 249 245 239 230 212 186 149 93 31 -60
B64:b25l 0 249 245 239 230 212 186 149 93 31 -59
B64:YTIw 0 249 245 239 230 212 186 149 92 30 -58
B64:YTEw 0 249 245 239 230 212 186 149 92 30 -57
B64:dHJpcGxl 0 249 245 239 230 212 186 149 92 29 -56
B64:Zml0 0 249 245 239 230 212 186 149 92 29 -55
B64:eDQr 0 249 245 239 230 212 186 148 91 28 -54
B64:Y29ycG9yYXRl 0 249 245 239 230 212 186 148 91 28 -53
B64:Y2FuZHk= 0 249 245 239 230 212 186 148 91 27 -52
B64:dzEw 0 249 245 239 230 212 186 148 91 27 -51
B64:ejI= 0 249 245 239 230 212 186 148 90 26 -50
B64:c2hvdA== 0 249 245 239 230 212 186 148 90 26 -49
B64:Zm9sZA== 0 249 245 239 230 212 186 148 90 25 -48
B64:enM1NzFrbA== 0 249 245 239 230 212 186 148 90 25 -47
B64:b242 0 249 245 239 229 211 185 147 89 24 -46
B64:dmVudHVyZQ== 0 249 245 239 229 211 185 147 89 24 -45
B64:YTY= 0 249 245 239 229 211 185 147 89 23 -44
B64:aGFybW9ueQ== 0 249 245 239 229 211 185 147 89 23 -43
B64:enU2ODBrbA== 0 249 245 239 229 211 185 147 88 22 -42
B64:emI1NTZrbA== 0 249 245 239 229 211 185 147 88 22 -41
B64:ZW1lcmdl 0 249 245 239 229 211 185 147 88 21 -40
B64:ajg= 0 249 245 239 229 211 185 147 88 21 -39
B64:enM2MjBrbA== 0 249 245 239 229 211 185 146 87 20 -38
B64:cGVnYXN1cw== 0 249 245 239 229 211 185 146 87 20 -37
B64:bGFzZXI= 0 249 245 239 229 211 185 146 87 19 -36
B64:YTYr 0 249 245 239 229 211 185 146 87 19 -35
B64:b244 0 249 245 239 229 211 185 146 86 18 -34
B64:emI2MDFrbA== 0 249 245 239 229 211 185 146 86 18 -33
B64:c3R5bGU= 0 249 245 239 229 211 185 146 86 17 -32
B64:eDU= 0 249 245 239 229 211 185 146 86 17 -31
B64:bWFjaA== 0 249 245 239 229 211 184 145 85 16 -30
B64:bTEw 0 249 245 239 229 211 184 145 85 16 -29
B64:YXI= 0 249 245 239 229 211 184 145 85 15 -28
B64:YThz 0 249 245 239 229 211 184 145 85 15 -27
B64:NSA1 0 249 245 239 229 211 184 145 84 14 -26
B64:azQw 0 249 245 239 229 211 184 145 84 14 -25
B64:emI1NTJrbA== 0 249 245 239 229 211 184 145 84 13 -24
B64:emM2MDBrbA== 0 249 245 239 229 211 184 145 84 13 -23
B64:emI2MzFrbA== 0 249 245 239 229 211 184 144 83 12 -22
B64:NXo= 0 249 245 239 229 211 184 144 83 12 -21
B64:azU= 0 249 245 239 229 211 184 144 83 11 -20
B64:djMw 0 249 245 239 229 211 184 144 83 11 -19
B64:czEwZQ== 0 249 245 239 229 211 184 144 82 10 -18
B64:emI1NTVrbA== 0 249 245 239 229 211 184 144 82 10 -17
B64:dWx0cmE= 0 249 245 239 229 211 184 144 82 9 -16
B64:ajY= 0 249 245 239 229 211 184 144 82 9 -15
B64:eTM= 0 250 248 244 238 228 209 183 143 81 8 -14
B64:djUyMGts 0 250 248 244 238 228 209 183 143 81 8 -13
B64:YTQw 0 250 248 244 238 228 209 183 143 81 7 -12
B64:emI2OTBrZw== 0 250 248 244 238 228 209 183 143 81 7 -11
B64:emU1NTRrbA== 0 250 248 244 238 228 209 183 143 80 6 -10
B64:Y2M5 0 250 248 244 238 228 209 183 143 80 6 -9
B64:N3M= 0 250 248 244 238 228 209 183 143 80 5 -8
B64:OXQ= 0 250 248 244 238 228 209 183 143 80 5 -7
B64:N2E= 0 250 247 242 235 222 203 175 131 79 4 -6
B64:QVNVUw== 0 250 247 242 235 222 203 175 131 79 4 3 2 -5
B64:TEc= 0 250 247 242 235 222 203 175 131 79 4 3 1 -4
B64:QVBQTEU= 0 250 247 242 235 222 203 175 131 79 4 3 1 -3
B64:U0FNU1VORw== 0 250 247 242 235 222 203 175 131 79 4 3 2 0 -2
B64:WElBT01J 0 250 247 242 235 222 203 175 131 79 4 3 2 0 -1
